^C:\USERS\TVV67\SOURCE\REPOS\LIBINJECTOR\LIBINJECTOR\DLLMAIN.CPP
C:\USERS\TVV67\SOURCE\REPOS\LIBINJECTOR\LIBINJECTOR\X64\RELEASE\VC143.PDB
C:\USERS\TVV67\SOURCE\REPOS\LIBINJECTOR\LIBINJECTOR\X64\RELEASE\DLLMAIN.OBJ
